<?xml version="1.0"?>
<robot name="cash_register">
  
  <include filename="$(find unihb_lab)/defs/util_defs.xml"/> 
  
  <link name="cash_register_link">    
    <visual>
      <geometry>
	<mesh filename="package://unihb_lab/Media/models/meshes/Cash_Register.dae" scale="0.03 0.03 0.03" />
      </geometry>		
      <origin rpy="0 0 0" xyz="0 0 0" />	
    </visual>
    
  <!--
    <collision>
      <geometry>
	<mesh filename="package://unihb_lab/Media/models/meshes/Cash_Register.dae" scale="0.03 0.03 0.03" />
      </geometry>
      <origin rpy="0 0 0" xyz="0 0 0" />
    </collision>
    -->
    
    <collision>
      <geometry>
	<box size="0.5 0.5 0.3"/>
      </geometry>
      <origin rpy="0 0 0" xyz="0.25 0.25 0.15" />
    </collision>
    
    <inertial>
      <mass value="10"/>
      <cuboid_inertia_def width="0.5" height="0.3" length="0.5" mass="10"/>
      <origin rpy="0 0 0" xyz="0.3 0.25 0.15" />
    </inertial>

  </link>
  
</robot>