<?xml version="1.0"?>
<robot name="cnc_area_cnc_machine">
  
  <include filename="$(find unihb_lab)/defs/util_defs.xml"/>  
  
  <link name="cnc_area_cnc_machine_link">    
    <visual>
      <geometry>
	<mesh filename="package://unihb_lab/Media/models/meshes/cnc.dae" scale="0.02 0.02 0.02" />
      </geometry>		
      <origin rpy="0 0 0" xyz="0 0 0" />	
    </visual>

    <!--collision>
      <geometry>
	<mesh filename="package://unihb_lab/Media/models/meshes/cnc.dae" scale="0.02 0.02 0.02" />
      </geometry>
      <origin rpy="0 0 0" xyz="0 0 0" />
    </collision-->
    
    <collision>
      <geometry>
	<box size="2.9 1.45 1.5"/>
      </geometry>
      <origin rpy="0 0 0" xyz="1.42 0.40 0.76" />
    </collision>
    
    <cuboid_inertia width="2.9" length="1.45" height="1.5" mass="1000"/>

  </link>
    
</robot>